{
  "schemaVersion": 1,
  "id": "autokey_standardlibrary",
  "version": "${version}",
  "name": "Standard Library",
  "description": "Standard library for Autokey.",
  "authors": [
    "CubicEquation"
  ],
  "contact": {
    "homepage": "https://modrinth.com/mod/autokey",
    "sources": "https://gitlab.com/tobilinz/autokey",
    "issues": "https://gitlab.com/tobilinz/autokey/-/issues"
  },
  "license": "mit",
  "icon": "assets/autokey_standardlibrary/icon.png",
  "environment": "client",
  "entrypoints": {
    "autokey_core": [
      "com.cubicequation.autokey_standardlibrary.entrypoints.Library",
      "com.cubicequation.autokey_standardlibrary.entrypoints.Keybindings"
    ]
  },
  "mixins": [
    {
      "config": "autokey_standardlibrary.mixins.json",
      "environment": "client"
    }
  ],
  "depends": {
    "java": ">=${java}",
    "minecraft": "${minecraft}",
    "fabricloader": ">=${fabricloader}",
    "fabric": ">=${fabric}",
    "autokey": "1.x.x"
  },
  "custom": {
    "modmenu": {
      "links": {
        "Wiki": "https://gitlab.com/tobilinz/autokey/-/wikis/Documentation"
      },
      "parent": "autokey"
    }
  }
}
