{
  "schemaVersion": 1,
  "id": "autokey",
  "version": "${version}",
  "name": "Autokey",
  "description": "Simple, client side scripting for Minecraft.",
  "authors": [
    "CubicEquation"
  ],
  "contact": {
    "homepage": "https://modrinth.com/mod/autokey",
    "sources": "https://gitlab.com/tobilinz/autokey",
    "issues": "https://gitlab.com/tobilinz/autokey/-/issues"
  },
  "license": "mit",
  "icon": "assets/autokey/icon.png",
  "environment": "client",
  "depends": {
    "java": ">=${java}",
    "minecraft": "${minecraft}",
    "fabricloader": ">=${fabricloader}",
    "fabric": ">=${fabric}"
  },
  "custom": {
    "modmenu": {
      "links": {
        "Wiki": "https://gitlab.com/tobilinz/autokey/-/wikis"
      }
    }
  }
}
