<svg width="256" height="256" version="1.1" viewBox="0 0 67.733 67.733" xmlns="http://www.w3.org/2000/svg" xmlns:xlink="http://www.w3.org/1999/xlink">
  <defs>
    <linearGradient id="a" x2="200" y1="-100" y2="-100" gradientTransform="matrix(.33867 0 0 .33867 5.9705e-7 7.4546e-6)" gradientUnits="userSpaceOnUse">
      <stop stop-color="#ff9947" offset="0"/>
      <stop stop-color="#ffa866" offset="1"/>
    </linearGradient>
  </defs>
  <g>
    <rect transform="rotate(90)" y="-67.733" width="67.733" height="67.733" fill="url(#a)" stroke-width="0" style="mix-blend-mode:color"/>
    <g fill-rule="evenodd">
      <rect x="27.517" y="21.167" width="5.2917" height="10.583" fill="#da2c38"/>
      <rect x="40.217" y="21.167" width="5.2917" height="10.583" fill="#3d5a80"/>
      <rect x="45.508" y="19.844" width="5.2917" height="11.906" fill="#293241"/>
      <rect x="22.225" y="19.844" width="5.2917" height="11.906" fill="#fb5607"/>
      <rect x="32.808" y="17.198" width="5.2917" height="14.552" fill="#ff006e"/>
      <rect x="45.508" y="37.571" width="5.2917" height="13.229" fill="#8338ec"/>
      <rect x="40.217" y="38.894" width="5.2917" height="11.906" fill="#3a86ff"/>
      <rect x="16.933" y="38.894" width="5.2917" height="11.906" fill="#43291f"/>
      <rect x="27.517" y="37.571" width="5.2917" height="13.229" fill="#226f54"/>
      <rect x="22.225" y="36.248" width="5.2917" height="14.552" fill="#132a13"/>
    </g>
  </g>
  <rect x="14.817" y="14.817" width="38.1" height="38.1" rx="3.3712" fill="none" stroke="#fff" stroke-width="4.2333"/>
  <rect x="14.817" y="31.75" width="38.1" height="4.2333" fill="#fff" fill-rule="evenodd"/>
  <rect x="16.933" y="18.521" width="5.2917" height="13.229" fill="#ffbe0b" fill-rule="evenodd"/>
</svg>
