<svg width="256" height="256" version="1.1" viewBox="0 0 67.733 67.733" xmlns="http://www.w3.org/2000/svg" xmlns:xlink="http://www.w3.org/1999/xlink">
  <defs>
    <linearGradient id="a" x2="200" y1="-100" y2="-100" gradientTransform="matrix(.33867 0 0 .33867 5.9705e-7 7.4546e-6)" gradientUnits="userSpaceOnUse">
      <stop stop-color="#ff9947" offset="0"/>
      <stop stop-color="#ffa866" offset="1"/>
    </linearGradient>
  </defs>
  <g stroke-width="0">
    <rect transform="rotate(90)" y="-67.733" width="67.733" height="67.733" fill="url(#a)" style="mix-blend-mode:color"/>
    <g transform="matrix(.41181 0 0 .41181 -7.8442 -2.7954)" fill="#fff">
      <path d="m115.81 32.488c-9.7529 0.02813-1.551 9.1285-10.972 13.444-9.5708 4.3838-10.748-8.3458-17.498-0.17896-6.7501 8.1668 5.7985 7.1378 3.2061 17.47-2.5924 10.332-13.126 3.3302-11.047 13.782 2.0787 10.451 9.1105-0.15386 15.449 8.3466 6.3381 8.5005-5.6203 12.498 3.7218 17.364 9.3421 4.8659 5.5617-7.3294 16.058-7.0619 10.496 0.26757 6.1178 12.255 15.689 7.8713 9.5708-4.3838-2.1749-8.9859 4.5752-17.153 6.75-8.1668 13.249 2.7833 15.841-7.5491 2.5924-10.332-8.2738-3.8756-10.352-14.327-2.0787-10.451 10.403-8.7842 4.0652-17.285-6.3381-8.5005-8.1424 4.153-17.485-0.71289-9.3421-4.8659-0.27612-13.737-10.772-14.005-0.16399-0.0044-0.32331-6e-3 -0.47812-0.0056zm-0.44183 22.778a14.4 14.4 0 0 1 14.4 14.4 14.4 14.4 0 0 1-14.4 14.4 14.4 14.4 0 0 1-14.4-14.4 14.4 14.4 0 0 1 14.4-14.4z"/>
      <path d="m65.361 92.178c-6.4863 3.7699 2.4778 6.6777-2.1387 13.176-4.6897 6.6014-10.37-1.426-11.725 6.6107-1.3556 8.0367 6.6081 2.5248 8.8551 10.405 2.247 7.8802-7.4634 7.2669-2.0588 13.43 5.4046 6.163 6.01-3.6065 13.502-0.38144 7.4917 3.2251 1.0629 10.488 9.1579 10.136 8.095-0.35158 0.88608-7.0218 7.9811-10.88 7.095-3.8586 8.789 5.811 13.479-0.79039 4.6897-6.6014-4.905-5.1497-3.5493-13.186 1.3556-8.0367 9.8965-3.2416 7.6495-11.122-2.247-7.8802-7.0024 0.6004-12.407-5.5626-5.4046-6.163 3.5519-9.8531-3.9398-13.078-7.4917-3.2251-3.8269 5.8983-11.922 6.2499-8.095 0.35161-5.4674-9.0451-12.562-5.1865-0.11106 0.06-0.21777 0.12022-0.32061 0.18025zm8.4665 15.344a11.077 11.077 57.055 0 1 15.131 4.0544 11.077 11.077 57.055 0 1-4.0543 15.131 11.077 11.077 57.055 0 1-15.131-4.0544 11.077 11.077 57.055 0 1 4.0545-15.131z"/>
    </g>
  </g>
</svg>
