<?xml version="1.0" encoding="UTF-8" standalone="no"?>
<!-- Created with Inkscape (http://www.inkscape.org/) -->

<svg
   width="256"
   height="256"
   viewBox="0 0 67.733334 67.733334"
   version="1.1"
   id="svg5"
   inkscape:version="1.3 (0e150ed6c4, 2023-07-21)"
   sodipodi:docname="logo_autokey_akeylang.svg"
   xmlns:inkscape="http://www.inkscape.org/namespaces/inkscape"
   xmlns:sodipodi="http://sodipodi.sourceforge.net/DTD/sodipodi-0.dtd"
   xmlns:xlink="http://www.w3.org/1999/xlink"
   xmlns="http://www.w3.org/2000/svg"
   xmlns:svg="http://www.w3.org/2000/svg">
  <sodipodi:namedview
     id="namedview7"
     pagecolor="#505050"
     bordercolor="#eeeeee"
     borderopacity="1"
     inkscape:pageshadow="0"
     inkscape:pageopacity="0"
     inkscape:pagecheckerboard="0"
     inkscape:document-units="mm"
     showgrid="false"
     inkscape:zoom="2.08"
     inkscape:cx="111.53846"
     inkscape:cy="75.721154"
     inkscape:window-width="2560"
     inkscape:window-height="1371"
     inkscape:window-x="0"
     inkscape:window-y="0"
     inkscape:window-maximized="1"
     inkscape:current-layer="layer1"
     inkscape:showpageshadow="2"
     inkscape:deskcolor="#d1d1d1" />
  <defs
     id="defs2">
    <linearGradient
       inkscape:collect="always"
       id="linearGradient4508">
      <stop
         style="stop-color:#ff9947;stop-opacity:1"
         offset="0"
         id="stop4504" />
      <stop
         style="stop-color:#ffa866;stop-opacity:1"
         offset="1"
         id="stop4506" />
    </linearGradient>
    <linearGradient
       inkscape:collect="always"
       xlink:href="#linearGradient4508"
       id="linearGradient4510"
       x1="0"
       y1="-100"
       x2="200"
       y2="-100"
       gradientUnits="userSpaceOnUse"
       gradientTransform="matrix(0.33866666,0,0,0.33866666,5.9704885e-7,7.4546353e-6)" />
  </defs>
  <g
     inkscape:label="Layer 1"
     inkscape:groupmode="layer"
     id="layer1">
    <rect
       style="mix-blend-mode:color;fill:url(#linearGradient4510);fill-opacity:1;stroke-width:0"
       id="rect2194"
       width="67.73333"
       height="67.73333"
       x="0"
       y="-67.73333"
       transform="rotate(90)" />
    <g
       id="g2611"
       transform="matrix(0.58796331,0,0,0.58796433,-33.885392,-6.4017227)"
       inkscape:export-filename="src/main/resources/assets/autokey/icon.png"
       inkscape:export-xdpi="192.00002"
       inkscape:export-ydpi="192.00002"
       style="fill:#ffffff;fill-opacity:1">
      <path
         id="path846"
         style="fill:#ffffff;fill-opacity:1;stroke-width:0"
         d="m 115.81268,32.487912 c -9.75291,0.02813 -1.55095,9.128523 -10.97217,13.443788 -9.570771,4.383764 -10.747666,-8.345802 -17.497717,-0.178963 -6.750063,8.166836 5.798539,7.137768 3.206124,17.470138 -2.592414,10.332365 -13.126014,3.330189 -11.047325,13.781633 2.078689,10.451442 9.110466,-0.153858 15.44855,8.346624 6.338068,8.500488 -5.620328,12.498197 3.721812,17.364098 9.342146,4.86592 5.561746,-7.329434 16.057616,-7.061871 10.49589,0.267566 6.11776,12.255071 15.68855,7.871311 9.57075,-4.383767 -2.17491,-8.985922 4.57516,-17.152764 6.75005,-8.166827 13.24884,2.783269 15.84125,-7.549103 2.5924,-10.332362 -8.27378,-3.875628 -10.35248,-14.327079 -2.07868,-10.451446 10.40331,-8.784177 4.06524,-17.284663 -6.33808,-8.500489 -8.14237,4.153017 -17.48451,-0.712887 -9.34213,-4.865899 -0.27612,-13.737118 -10.77199,-14.004685 -0.16399,-0.0044 -0.32331,-0.006 -0.47812,-0.0056 z m -0.44183,22.778261 A 14.399996,14.399958 0 0 1 129.77071,69.665999 14.399996,14.399958 0 0 1 115.37085,84.06601 14.399996,14.399958 0 0 1 100.97079,69.665998 14.399996,14.399958 0 0 1 115.37085,55.266173 Z" />
    </g>
  </g>
</svg>
